{
    "missing": [],
    "inconsistent": {
        "XF": [
            "js/xf/captcha.min.js",
            "js/xf/core-compiled.js",
            "src/XF/Api/Controller/Auth.php",
            "src/XF/ControllerPlugin/Login.php",
            "src/XF/Pub/Controller/Logout.php",
            "src/XF/Pub/Controller/Register.php",
            "src/XF/Service/User/EmailChange.php",
            "src/XF/Service/User/EmailConfirmation.php",
            "src/XF/Service/User/Login.php",
            "styles/default/xenforo/xenforo-logo.png"
        ]
    },
    "total_missing": 0,
    "total_inconsistent": 10,
    "total_checked": 4547
}